HW2 p8105 James Dalgleish jld2227
…
## See spec(...) for full column specifications.

subway_data 

## # A tibble: 1,868 x 18
##    line  station_name station_latitude station_longitu~ route1 route2
##    <chr> <chr>                   <dbl>            <dbl> <chr>  <chr> 
##  1 4 Av~ 25th St                  40.7            -74.0 R      <NA>  
##  2 4 Av~ 25th St                  40.7            -74.0 R      <NA>  
##  3 4 Av~ 36th St                  40.7            -74.0 N      R     
##  4 4 Av~ 36th St                  40.7            -74.0 N      R     
##  5 4 Av~ 36th St                  40.7            -74.0 N      R     
##  6 4 Av~ 45th St                  40.6            -74.0 R      <NA>  
##  7 4 Av~ 45th St                  40.6            -74.0 R      <NA>  
##  8 4 Av~ 45th St                  40.6            -74.0 R      <NA>  
##  9 4 Av~ 45th St                  40.6            -74.0 R      <NA>  
## 10 4 Av~ 53rd St                  40.6            -74.0 R      <NA>  
## # ... with 1,858 more rows, and 12 more variables: route3 <chr>,
## #   route4 <chr>, route5 <chr>, route6 <chr>, route7 <chr>, route8 <int>,
## #   route9 <int>, route10 <int>, route11 <int>, entry <lgl>,
## #   vending <chr>, ada <lgl>
…
Putting the wide format into long could aid analysis and can be done with a simple gather command. Well also get rid of names that appear to be the same, but differ only on case. There are stations with FS and GS lines, but which might seem like more than one line in a single obserrvation, but they are distinct lines if one looks an MTA licensed site: https://moveonmap.com/nyc/lnG_GS_FS/ If they were F and S incorrectly noted in the same row, we could consider using separate_rows() to fix that. Well use the table function to show that weve now fixed the lower and upper case e.

subway_data_long = subway_data %>% 
  gather(key = "route_number", value = "train", route1:route11) %>% 
  mutate(train = tolower(train))
subway_data_long

## # A tibble: 20,548 x 9
##    line  station_name station_latitude station_longitu~ entry vending ada  
##    <chr> <chr>                   <dbl>            <dbl> <lgl> <chr>   <lgl>
##  1 4 Av~ 25th St                  40.7            -74.0 TRUE  YES     FALSE
##  2 4 Av~ 25th St                  40.7            -74.0 TRUE  YES     FALSE
##  3 4 Av~ 36th St                  40.7            -74.0 TRUE  YES     FALSE
##  4 4 Av~ 36th St                  40.7            -74.0 TRUE  YES     FALSE
##  5 4 Av~ 36th St                  40.7            -74.0 TRUE  YES     FALSE
##  6 4 Av~ 45th St                  40.6            -74.0 TRUE  YES     FALSE
##  7 4 Av~ 45th St                  40.6            -74.0 TRUE  YES     FALSE
##  8 4 Av~ 45th St                  40.6            -74.0 TRUE  YES     FALSE
##  9 4 Av~ 45th St                  40.6            -74.0 TRUE  YES     FALSE
## 10 4 Av~ 53rd St                  40.6            -74.0 TRUE  YES     FALSE
## # ... with 20,538 more rows, and 2 more variables: route_number <chr>,
## #   train <chr>
…
Instruction: Answer the following questions using these data:

How many distinct stations are there? Note that stations are identified both by name and by line (e.g.125th St A/B/C/D; 125st 1; 125st 4/5); the distinct function may be useful here. How many stations are ADA compliant? What proportion of station entrances / exits without vending allow entrance?"

Well now select the columns of interest and limit to only the distinct rows, then count the number of distinct rows containing route number and train combinations.

subway_routes_trains <- subway_data_long %>%
  select("route_number", "train") %>%
  distinct() %>% 
  na.omit() %>% 
  arrange(route_number,train)
subway_routes_trains

## # A tibble: 107 x 2
##    route_number train
##    <chr>        <chr>
##  1 route1       1    
##  2 route1       2    
##  3 route1       3    
##  4 route1       4    
##  5 route1       5    
##  6 route1       6    
##  7 route1       7    
##  8 route1       a    
##  9 route1       b    
## 10 route1       c    
## # ... with 97 more rows
…
There happen to be 107 distinct stations, according to the data.

Ada compliance

We will create an additional variable denoting if the station ada is compliant. There can be multiple entrances, only some of which are ada compliant. As a simple rule, a station is compliant if there is at least one station name/line combination with an ada compliant entrance, then it is ada compliant.

ada_accessible_stations <- subway_data_long %>%
  select("route_number","train","ada") %>% 
  filter( ada == TRUE) %>%
  distinct(route_number,train, .keep_all = TRUE) %>% 
  na.omit %>% 
  arrange(route_number,train)
ada_accessible_stations

## # A tibble: 88 x 3
##    route_number train ada  
##    <chr>        <chr> <lgl>
##  1 route1       1     TRUE 
##  2 route1       2     TRUE 
##  3 route1       3     TRUE 
##  4 route1       4     TRUE 
##  5 route1       6     TRUE 
##  6 route1       7     TRUE 
##  7 route1       a     TRUE 
##  8 route1       b     TRUE 
##  9 route1       c     TRUE 
## 10 route1       d     TRUE 
## # ... with 78 more rows
…
The number of distinct enterable subway entrances/exits without vending is therefore 69.

Instruction: Reformat data so that route number and route name are distinct variables. How many distinct stations serve the A train? How many are ADA compliant?

First well tackle the number of distinct A train stations. Weve done most of the work by using gather() earlier. The problem descriptions route name I have chosen to call train (the value argument in gather). I will change the name to make this clearer for the reader.

subway_data_long_a = subway_data %>% 
  gather(key = "route_number",value = "route_name",route1:route11) %>% 
  mutate(line = tolower(line))   %>% 
  filter(route_name == "A") %>% 
  distinct(station_name,line) %>%
  arrange(station_name,line)
subway_data_long_a

## # A tibble: 60 x 2
##    line             station_name                 
##    <chr>            <chr>                        
##  1 liberty          104th St-Oxford Av           
##  2 liberty          111th St-Greenwood Av        
##  3 8 avenue         125th St                     
##  4 8 avenue         145th St                     
##  5 8 avenue         14th St                      
##  6 broadway-7th ave 168th St                     
##  7 8 avenue         168th St - Washington Heights
##  8 8 avenue         175th St                     
##  9 8 avenue         181st St                     
## 10 8 avenue         190th St                     
## # ... with 50 more rows

It becomes clear now that there are precicsely 60 stations that service the A train.

Finally, how many are ada compliant follows a nearly identical process using the filter function.

subway_data_long_ada = subway_data %>% 
  gather(key = "route_number",value = "route_name",route1:route11) %>% 
  filter(ada == TRUE) %>% 
  mutate(line = tolower(line))   %>% 
  distinct(station_name,line) %>%
  arrange(station_name,line)
subway_data_long_ada

## # A tibble: 84 x 2
##    line              station_name                 
##    <chr>             <chr>                        
##  1 lexington         125th St                     
##  2 lenox             135th St                     
##  3 white plains road 149th St-3rd Av              
##  4 8 avenue          14th St                      
##  5 8 avenue          168th St - Washington Heights
##  6 8 avenue          175th St                     
##  7 63rd street       21st St                      
##  8 broadway-7th ave  231st St                     
##  9 white plains road 233rd St                     
## 10 flushing          34 St Hudson Yards           
## # ... with 74 more rows
…
 trash_wheel_data

## # A tibble: 215 x 14
##    dumpster month  year date                weight_tons volume_cubic_ya~
##       <dbl> <chr> <dbl> <dttm>                    <dbl>            <dbl>
##  1        1 May    2014 2014-05-16 00:00:00        4.31               18
##  2        2 May    2014 2014-05-16 00:00:00        2.74               13
##  3        3 May    2014 2014-05-16 00:00:00        3.45               15
##  4        4 May    2014 2014-05-17 00:00:00        3.1                15
##  5        5 May    2014 2014-05-17 00:00:00        4.06               18
##  6        6 May    2014 2014-05-20 00:00:00        2.71               13
##  7        7 May    2014 2014-05-21 00:00:00        1.91                8
##  8        8 May    2014 2014-05-28 00:00:00        3.7                16
##  9        9 June   2014 2014-06-05 00:00:00        2.52               14
## 10       10 June   2014 2014-06-11 00:00:00        3.76               18
## # ... with 205 more rows, and 8 more variables: plastic_bottles <dbl>,
## #   polystyrene <dbl>, cigarette_butts <dbl>, glass_bottles <dbl>,
## #   grocery_bags <dbl>, chip_bags <dbl>, sports_balls <int>,
## #   homes_powered <dbl>
…
This problem uses the BRFSS data. DO NOT include this dataset in your local data directory; instead, load the data from the p8105.datasets package.

For this question:

format the data to use appropriate variable names; focus on the Overall Health topic exclude variables for class, topic, question, sample size, and everything from lower confidence limit to GeoLocation structure data so that responses (excellent to poor) are variables taking the value of Data_value create a new variable showing the proportion of responses that were Excellent or Very Good"

brfss <- p8105.datasets::brfss_smart2010 %>% janitor::clean_names() %>% 
  filter(topic == "Overall Health") %>% 
  select(-class,-topic,-question,-sample_size,-(confidence_limit_low:geo_location)) %>% 
    spread(key = response,value=data_value) %>%
   janitor::clean_names() %>%
  mutate(ex_very_good = excellent + very_good)
brfss  

## # A tibble: 2,125 x 9
##     year locationabbr locationdesc excellent  fair  good  poor very_good
##    <int> <chr>        <chr>            <dbl> <dbl> <dbl> <dbl>     <dbl>
##  1  2002 AK           AK - Anchor~      27.9   8.6  23.8   5.9      33.7
##  2  2002 AL           AL - Jeffer~      18.5  12.1  32.7   5.9      30.9
##  3  2002 AR           AR - Pulask~      24.1  12.5  29.9   4.2      29.3
##  4  2002 AZ           AZ - Marico~      21.6  10.3  26.9   4.6      36.6
##  5  2002 AZ           AZ - Pima C~      26.6   7.5  31.9   3.9      30.1
##  6  2002 CA           CA - Los An~      22.7  14.3  28.7   4.5      29.8
##  7  2002 CO           CO - Adams ~      21.2  14.4  29     4.2      31.2
##  8  2002 CO           CO - Arapah~      25.5   8    29.3   2.1      35.2
##  9  2002 CO           CO - Denver~      22.2  11.1  36.6   3        27.1
## 10  2002 CO           CO - Jeffer~      23.4  11.4  26.3   2.4      36.6
## # ... with 2,115 more rows, and 1 more variable: ex_very_good <dbl>
…
