…
    ## See spec(...) for full column specifications.

``` r
subway_data 
```

    ## # A tibble: 1,868 x 18
    ##    line  station_name station_latitude station_longitu~ route1 route2
    ##    <chr> <chr>                   <dbl>            <dbl> <chr>  <chr> 
    ##  1 4 Av~ 25th St                  40.7            -74.0 R      <NA>  
    ##  2 4 Av~ 25th St                  40.7            -74.0 R      <NA>  
    ##  3 4 Av~ 36th St                  40.7            -74.0 N      R     
    ##  4 4 Av~ 36th St                  40.7            -74.0 N      R     
    ##  5 4 Av~ 36th St                  40.7            -74.0 N      R     
    ##  6 4 Av~ 45th St                  40.6            -74.0 R      <NA>  
    ##  7 4 Av~ 45th St                  40.6            -74.0 R      <NA>  
    ##  8 4 Av~ 45th St                  40.6            -74.0 R      <NA>  
    ##  9 4 Av~ 45th St                  40.6            -74.0 R      <NA>  
    ## 10 4 Av~ 53rd St                  40.6            -74.0 R      <NA>  
    ## # ... with 1,858 more rows, and 12 more variables: route3 <chr>,
    ## #   route4 <chr>, route5 <chr>, route6 <chr>, route7 <chr>, route8 <int>,
    ## #   route9 <int>, route10 <int>, route11 <int>, entry <lgl>,
    ## #   vending <chr>, ada <lgl>
…
Putting the wide format into long could aid analysis and can be done with a simple gather command. We'll also get rid of names that appear to be the same, but differ only on case. There are stations with FS and GS lines, but which might seem like more than one line in a single observation, but they are distinct lines if one looks an MTA licensed site: <https://moveonmap.com/nyc/lnG_GS_FS/> If they were F and S incorrectly noted in the same row, we could consider using separate\_rows() to fix that. We'll use the table function to show that we've now fixed the lower and upper case e.

``` r
subway_data_long = subway_data %>% 
  #others may call this route name rather than train.
  #I simply used a different nomenclature, but the logic is the same.
  gather(key = "route_number", value = "train", route1:route11) %>% 
  mutate(train = tolower(train)) #This fixes the lower case e.
subway_data_long #display the dataframe.
```

    ## # A tibble: 20,548 x 9
    ##    line  station_name station_latitude station_longitu~ entry vending ada  
    ##    <chr> <chr>                   <dbl>            <dbl> <lgl> <chr>   <lgl>
    ##  1 4 Av~ 25th St                  40.7            -74.0 TRUE  YES     FALSE
    ##  2 4 Av~ 25th St                  40.7            -74.0 TRUE  YES     FALSE
    ##  3 4 Av~ 36th St                  40.7            -74.0 TRUE  YES     FALSE
    ##  4 4 Av~ 36th St                  40.7            -74.0 TRUE  YES     FALSE
    ##  5 4 Av~ 36th St                  40.7            -74.0 TRUE  YES     FALSE
    ##  6 4 Av~ 45th St                  40.6            -74.0 TRUE  YES     FALSE
    ##  7 4 Av~ 45th St                  40.6            -74.0 TRUE  YES     FALSE
    ##  8 4 Av~ 45th St                  40.6            -74.0 TRUE  YES     FALSE
    ##  9 4 Av~ 45th St                  40.6            -74.0 TRUE  YES     FALSE
    ## 10 4 Av~ 53rd St                  40.6            -74.0 TRUE  YES     FALSE
    ## # ... with 20,538 more rows, and 2 more variables: route_number <chr>,
    ## #   train <chr>
…
How many distinct stations are there? Note that stations are identified both by name and by line (e.g. 125th St A/B/C/D; 125st 1; 125st 4/5); the distinct function may be useful here. How many stations are ADA compliant? What proportion of station entrances / exits without vending allow entrance?"

We'll now select the columns of interest and limit to only the distinct rows, then count the number of distinct rows containing route number and train combinations.

``` r
subway_routes_trains <- subway_data_long %>%
  select("route_number", "train") %>%
  distinct() %>% 
  na.omit() %>% 
  arrange(route_number,train)
subway_routes_trains
```

    ## # A tibble: 107 x 2
    ##    route_number train
    ##    <chr>        <chr>
    ##  1 route1       1    
    ##  2 route1       2    
    ##  3 route1       3    
    ##  4 route1       4    
    ##  5 route1       5    
    ##  6 route1       6    
    ##  7 route1       7    
    ##  8 route1       a    
    ##  9 route1       b    
    ## 10 route1       c    
    ## # ... with 97 more rows
…
ada_accessible_stations <- subway_data_long %>% 
  #Colums are selected from the dataframe.
  select("route_number", "train", "ada") %>% 
  #Those openings that are accessible are  filtered.
  filter(ada == TRUE) %>%
  #Those that have a distinct route number and name (train) are kept.
  distinct(route_number, train, .keep_all = TRUE) %>% 
  #Rows with missing values are omitted.
  na.omit %>% 
  #The dataframe is sorted by route number and train.
  arrange(route_number, train)
ada_accessible_stations
```

    ## # A tibble: 88 x 3
    ##    route_number train ada  
    ##    <chr>        <chr> <lgl>
    ##  1 route1       1     TRUE 
    ##  2 route1       2     TRUE 
    ##  3 route1       3     TRUE 
    ##  4 route1       4     TRUE 
    ##  5 route1       6     TRUE 
    ##  6 route1       7     TRUE 
    ##  7 route1       a     TRUE 
    ##  8 route1       b     TRUE 
    ##  9 route1       c     TRUE 
    ## 10 route1       d     TRUE 
    ## # ... with 78 more rows
…
First we'll tackle the number of distinct A train stations. We've done most of the work by using gather() earlier. The problem description's route name I have chosen to call train (the value argument in gather). I will change the name to make this clearer for the reader (from "train" to "route name").

``` r
subway_data_long_a = subway_data %>% 
  gather(key = "route_number",
  value = "route_name",route1:route11) %>% 
  mutate(line = tolower(line))   %>% 
  filter(route_name == "A") %>% 
  distinct(station_name,line) %>%
  arrange(station_name,line)
subway_data_long_a
```

    ## # A tibble: 60 x 2
    ##    line             station_name                 
    ##    <chr>            <chr>                        
    ##  1 liberty          104th St-Oxford Av           
    ##  2 liberty          111th St-Greenwood Av        
    ##  3 8 avenue         125th St                     
    ##  4 8 avenue         145th St                     
    ##  5 8 avenue         14th St                      
    ##  6 broadway-7th ave 168th St                     
    ##  7 8 avenue         168th St - Washington Heights
    ##  8 8 avenue         175th St                     
    ##  9 8 avenue         181st St                     
    ## 10 8 avenue         190th St                     
    ## # ... with 50 more rows
It becomes clear now that there are precicsely 60 stations that service the A train.

Finally, how many are ada compliant follows a nearly identical process using the filter function.

``` r
subway_data_long_ada = subway_data %>% 
  gather(key = "route_number", value = "route_name", route1:route11) %>% 
  filter(ada == TRUE) %>% 
  mutate(line = tolower(line))   %>% 
  distinct(station_name, line) %>%
  arrange(station_name, line)
subway_data_long_ada
```

    ## # A tibble: 84 x 2
    ##    line              station_name                 
    ##    <chr>             <chr>                        
    ##  1 lexington         125th St                     
    ##  2 lenox             135th St                     
    ##  3 white plains road 149th St-3rd Av              
    ##  4 8 avenue          14th St                      
    ##  5 8 avenue          168th St - Washington Heights
    ##  6 8 avenue          175th St                     
    ##  7 63rd street       21st St                      
    ##  8 broadway-7th ave  231st St                     
    ##  9 white plains road 233rd St                     
    ## 10 flushing          34 St Hudson Yards           
    ## # ... with 74 more rows
…
  sheet =  "Mr. Trash Wheel",
  range = readxl::cell_cols("A:N")) %>% #This limits to columns A:N,
  #which are the data columns
  janitor::clean_names() %>%  #converts colnames to snake case.
  drop_na(dumpster) %>% #removes all NA in dumpster
  filter( month %in% month.name) %>%  #filters those without a valid month.
  mutate( year = lubridate::year(date), #fixes the year variable to pull from the
          #date-- some of the year associated with the date were inaccurate.
    sports_balls = round(sports_balls) %>% #grabs the sports balls and rounds
            as.integer()) %>%  #converts rounded values from double to integer.
  as.tibble() #convert to tibble.
 trash_wheel_data #display the data.
```

    ## # A tibble: 285 x 14
    ##    dumpster month  year date                weight_tons volume_cubic_ya~
    ##       <dbl> <chr> <dbl> <dttm>                    <dbl>            <dbl>
    ##  1        1 May    2014 2014-05-16 00:00:00        4.31               18
    ##  2        2 May    2014 2014-05-16 00:00:00        2.74               13
    ##  3        3 May    2014 2014-05-16 00:00:00        3.45               15
    ##  4        4 May    2014 2014-05-17 00:00:00        3.1                15
    ##  5        5 May    2014 2014-05-17 00:00:00        4.06               18
    ##  6        6 May    2014 2014-05-20 00:00:00        2.71               13
    ##  7        7 May    2014 2014-05-21 00:00:00        1.91                8
    ##  8        8 May    2014 2014-05-28 00:00:00        3.7                16
    ##  9        9 June   2014 2014-06-05 00:00:00        2.52               14
    ## 10       10 June   2014 2014-06-11 00:00:00        3.76               18
    ## # ... with 275 more rows, and 8 more variables: plastic_bottles <dbl>,
    ## #   polystyrene <dbl>, cigarette_butts <dbl>, glass_bottles <dbl>,
    ## #   grocery_bags <dbl>, chip_bags <dbl>, sports_balls <int>,
    ## #   homes_powered <dbl>
…
